[
{
"name": "Learning Center",
"url": "wine-cellar-resources",
"children": [
		{
		"name": "Buying Guides",
		"url": "iwa-buying-guides",
		"children": [
				{
				"name": "Cooling Units",
				"url": "cooling-unit-buying-guide",
				"children": []
				},
				{
				"name": "Wine Cabinets",
				"url": "wine-cabinet-buying-guide",
				"children": []
				},
				{
				"name": "Wine Coolers",
				"url": "wine-cooler-buying-guide",
				"children": []
				},
				{
				"name": "Wine Racks",
				"url": "wine-racks-buying-guide",
				"children": []
				}
		]
		},
	    {
		"name": "Comparisons",
		"url": "compare-wine-accessories",
		"children": [
				{
				"name": "Wine Cabinets",
				"url": "compare-wine-cabinets",
				"children": []
				},
				{
				"name": "Wine Coolers",
				"url": "compare-wine-coolers",
				"children": []
				},
				{
				"name": "Cooling Units",
				"url": "compare-wine-cooling-units",
				"children": []
				},
				{
				"name": "Wine Racks",
				"url": "compare-wine-racks",
				"children": []
				}
		]
		},
		{
		"name": "Performance Data",
		"url": "performance-test-data",
		"children": [
				{
				"name": "Cooling Units",
				"url": "performance-data-cooling-units",
				"children": []
				},
				{
				"name": "Wine Coolers",
				"url": "performance-data-wine-coolers",
				"children": []
				}
		]
		},
		{
		"name": "Cellar Projects",
		"url": "wine-cellar-designs-completed-projects",
		"children": [
				{
				"name": "Residential Case Studies",
				"url": "residential-wine-cellar-projects",
				"children": []
				},
				{
				"name": "Commercial Case Studies",
				"url": "commercial-wine-cellar-projects",
				"children": []
				},
				{
				"name": "Projects by Geography",
				"url": "wine-cellar-portfolio-geography",
				"children": []
				}
		]
		},
		{
		"name": "Resources",
		"url": "iwa-resources",
		"children": [
				{
				"name": "Wine Racks",
				"url": "iwa-resources-wine-rack-kits",
				"children": []
				},
				{
				"name": "Wine Cabinets",
				"url": "iwa-resources-wine-cabinets",
				"children": []
				},
				{
				"name": "Wine Coolers",
				"url": "iwa-resources-wine-coolers",
				"children": []
				},
				{
				"name": "CellarPro - 1800 Series",
				"url": "iwa-resources-cellarpro-1800",
				"children": []
				},
				{
				"name": "CellarPro - VS Series",
				"url": "iwa-resources-cellarpro-vs",
				"children": []
				},
				{
				"name": "CellarPro - Split Systems",
				"url": "iwa-resources-cellarpro-split",
				"children": []
				},
				{
				"name": "CellarPro - Air Handlers",
				"url": "iwa-resources-cellarpro-air-handlers",
				"children": []
				}
		]
		}
]
},
{
"name": "Blog",
"url": "http://blog.iwawine.com",
"is_external": "true",
"children": [
		{
		"name": "Most Popular",
		"url": "http://blog.iwawine.com/tag/most-popular",
		"is_external": "true",
		"children": []
		},
		{
		"name": "Storage",
		"url": "http://blog.iwawine.com/tag/wine-storage",
		"is_external": "true",
		"children": []
		},
		{
		"name": "Videos",
		"url": "http://blog.iwawine.com/category/video",
		"is_external": "true",
		"children": []
		}
]
}
]